%YAML 1.1
%TAG !u! tag:unity3d.com,2011:
--- !u!78 &1
TagManager:
  serializedVersion: 2
  tags: []
  layers:
  - Default
  - TransparentFX
  - Ignore Raycast
  - 
  - Water
  - UI
  - 
  - 
  - 
  - 
  - 
  - 
  - 
  - 
  - 
  - 
  - 
  - 
  - 
  - 
  - 
  - 
  - 
  - 
  - 
  - 
  - 
  - 
  - 
  - 
  - 
  - 
  m_SortingLayers:
  - name: Default
    uniqueID: 0
    locked: 0
  - name: Background
    uniqueID: 387624801
    locked: 0
  - name: Environment
    uniqueID: 76293597
    locked: 0
  - name: Characters
    uniqueID: 1354755201
    locked: 0
  - name: Effects
    uniqueID: 2824649801
    locked: 0
  - name: UI
    uniqueID: 1283743589
    locked: 0
